{
  "Configs": [
    {
      "Name": "TestConfig",
      "PathsList": [
        "C:\\test"
      ],
      "FileNamePattern": "*.log",
      "OutputFile": "test-merged.log",
      "RefreshInterval": 1000,
      "FindFilesRecursively": true,
      "RecordRegex": "(?<RECORD>\\d{4}-\\d{2}-\\d{2}\\s.*?(?=\\d{4}-\\d{2}))",
      "Enabled": true
    }
  ],
  "ReaderBuffer" : 512 
}